Nombre,Email,Codigo,Puntos,Producto,IP,FechaRegistro
"Emiliano Hernández",milio.hernandez@gmail.com,kokatonik@gmail.com,100,,,"2016-12-20 10:53:32"
"Emiliano Hernández",milio.hernandez@gmail.com,"FEB05 L14 06:00",500,,,"2017-01-02 05:11:05"
"Emiliano Hernández",milio.hernandez@gmail.com,"FEB05 L14 06:00",500,,,"2017-01-02 05:22:57"
"Emiliano Hernández",milio.hernandez@gmail.com,"FEB05 L14 06:00",500,,,"2017-01-02 05:24:27"
"Emiliano Hernández",milio.hernandez@gmail.com,"09FEB17 AL23 20:00",1000,,::1,"2017-01-18 14:01:07"
"Emiliano Hernández",milio.hernandez@gmail.com,"09FEB17 BL23 20:00",1000,,::1,"2017-01-18 14:01:28"
"Emiliano Hernández",milio.hernandez@gmail.com,"09FEB17 L23 20:00",1000,,::1,"2017-01-18 14:01:45"
"Emiliano Hernández",milio.hernandez@gmail.com,"09FEB17 L23 20:00",1000,,::1,"2017-01-18 14:02:08"
"Emiliano Hernández",milio.hernandez@gmail.com,"09FEB17 L23 20:00",1000,,::1,"2017-01-18 14:02:39"
"Emiliano Hernández",milio.hernandez@gmail.com,"09FEB17 L23 20:05",1000,Kilo,::1,"2017-01-20 17:00:05"
"Emiliano Hernández",milio.hernandez@gmail.com,"09FEB17 L23 20:00",1000,Kilo,::1,"2017-01-26 17:57:43"
